examples/poc_arty_linux/dump.vcd
$date
	2025-02-26 14:22
$end
$timescale 5000ps $end
$scope dumped_signals $end
$var wire 30 ! main_basesoc_pbus_adr $end
$var wire 32 " main_basesoc_pbus_dat_w $end
$var wire 32 # main_basesoc_pbus_dat_r $end
$var wire 4 $ main_basesoc_pbus_sel $end
$var wire 1 % main_basesoc_pbus_cyc $end
$var wire 1 & main_basesoc_pbus_stb $end
$var wire 1 ' main_basesoc_pbus_ack $end
$var wire 1 ( main_basesoc_pbus_we $end
$var wire 3 ) main_basesoc_pbus_cti $end
$var wire 2 * main_basesoc_pbus_bte $end
$var wire 1 + main_basesoc_pbus_err $end
$var wire 62 , main_injector_injector_sink_payload_data $end
$var wire 3 - main_injector_injector_sink_payload_fault_model $end
$var wire 62 . main_injector_injector_sink_payload_fault_value $end
$var wire 62 / main_injector_injector_sink_payload_fault_mask $end
$var wire 62 0 main_injector_injector_output $end
$var wire 1 1 main_injector_trigger_source_payload_hit $end
$var wire 1 2 main_injector_trigger_trigger_hit $end
$var wire 9 3 main_injector_trigger_offset $end
$var wire 1 4 scope_clk $end
$var wire 1 5 scope_trig $end
$unscope  $end
$enddefinitions  $end
$dumpvars
bxxxxxxxxxxxxxxxxxxxxxxxxxxxxxx !
bxxxxxxxxxxxxxxxxxxxxxxxxxxxxxxxx "
bxxxxxxxxxxxxxxxxxxxxxxxxxxxxxxxx #
bxxxx $
bx %
bx &
bx '
bx (
bxxx )
bxx *
bx +
bxxxxxxxxxxxxxxxxxxxxxxxxxxxxxxxxxxxxxxxxxxxxxxxxxxxxxxxxxxxxxx ,
bxxx -
bxxxxxxxxxxxxxxxxxxxxxxxxxxxxxxxxxxxxxxxxxxxxxxxxxxxxxxxxxxxxxx .
bxxxxxxxxxxxxxxxxxxxxxxxxxxxxxxxxxxxxxxxxxxxxxxxxxxxxxxxxxxxxxx /
bxxxxxxxxxxxxxxxxxxxxxxxxxxxxxxxxxxxxxxxxxxxxxxxxxxxxxxxxxxxxxx 0
bx 1
bx 2
bxxxxxxxxx 3
bx 4
bx 5
$end
#0
b010000011111000000000011100000 !
b00000000000000000000000000000000 "
b00000000000000000000000000000000 #
b1111 $
b1 %
b1 &
b0 '
b0 (
b010 )
b00 *
b0 +
b01000001111100000000001110000000000000000000000000000000000000 ,
b101 -
b00000000000000000000000000000000000000111101110000111001100011 .
b11111111111111111111111111111100000000000000000000000000000000 /
b01000001111100000000001110000000000000000000000000000000000000 0
b0 1
b0 2
b000000001 3
b1 4
b0 5
#1
b0 4
#2
b1 4
#3
b0 4
#4
b1 4
#5
b0 4
#6
b1 4
#7
b0 4
#8
b1 4
#9
b0 4
#10
b1 4
#11
b0 4
#12
b1 4
#13
b0 4
#14
b1 4
#15
b0 4
#16
b1 4
#17
b0 4
#18
b1 4
#19
b0 4
#20
b1 4
#21
b0 4
#22
b1 4
#23
b0 4
#24
b1 4
#25
b0 4
#26
b1 4
#27
b0 4
#28
b1 4
#29
b0 4
#30
b1 4
#31
b0 4
#32
b1 4
b1 5
#33
b0 4
#34
b1 4
#35
b0 4
#36
b1 4
#37
b0 4
#38
b1 4
#39
b0 4
#40
b1 4
#41
b0 4
#42
b1 4
#43
b0 4
#44
b1 4
#45
b0 4
#46
b1 4
#47
b0 4
#48
b00000000000001010000011110010011 #
b1 '
b01000001111100000000001110000000000000000001010000011110010011 ,
b01000001111100000000001110000000000000000001010000011110010011 0
b1 4
#49
b0 4
#50
b010000011111000000000011100001 !
b0 '
b01000001111100000000001110000100000000000001010000011110010011 ,
b01000001111100000000001110000100000000000001010000011110010011 0
b1 4
#51
b0 4
#52
b00000000000001111000011100010011 #
b1 '
b01000001111100000000001110000100000000000001111000011100010011 ,
b01000001111100000000001110000100000000000001111000011100010011 0
b1 4
#53
b0 4
#54
b010000011111000000000011100010 !
b0 '
b01000001111100000000001110001000000000000001111000011100010011 ,
b01000001111100000000001110001000000000000001111000011100010011 0
b1 4
#55
b0 4
#56
b00000000000100000000011110010011 #
b1 '
b01000001111100000000001110001000000000000100000000011110010011 ,
b01000001111100000000001110001000000000000100000000011110010011 0
b1 4
#57
b0 4
#58
b010000011111000000000011100011 !
b0 '
b01000001111100000000001110001100000000000100000000011110010011 ,
b01000001111100000000001110001100000000000100000000011110010011 0
b1 4
#59
b0 4
#60
b00000000111101110001111001100011 #
b1 '
b01000001111100000000001110001100000000111101110001111001100011 ,
b01000001111100000000001110001100000000111101110001111001100011 0
b1 2
b1 4
#61
b0 4
#62
b010000011111000000000011100100 !
b0 '
b01000001111100000000001110010000000000111101110001111001100011 ,
b01000001111100000000001110010000000000111101110000111001100011 0
b1 1
b0 2
b1 4
#63
b0 4
#64
b01010010000000000000011100010011 #
b01000001111100000000001110010001010010000000000000011100010011 ,
b1 4
#65
b0 4
#66
b000 -
b00000000000000000000000000000000000000000000000000000000000000 .
b00000000000000000000000000000000000000000000000000000000000000 /
b01000001111100000000001110010001010010000000000000011100010011 0
b0 1
b000000000 3
b1 4
#67
b0 4
#68
b1 4
#69
b0 4
#70
b1 4
#71
b0 4
#72
b1 4
#73
b0 4
#74
b1 4
#75
b0 4
#76
b1 4
#77
b0 4
#78
b1 4
#79
b0 4
#80
b1 4
#81
b0 4
#82
b1 4
#83
b0 4
#84
b1 4
#85
b0 4
#86
b1 4
#87
b0 4
#88
b1 4
#89
b0 4
#90
b00000000001100000000011100010011 #
b1 '
b01000001111100000000001110010000000000001100000000011100010011 ,
b01000001111100000000001110010000000000001100000000011100010011 0
b1 4
#91
b0 4
#92
b010000011111000000000011100101 !
b0 '
b01000001111100000000001110010100000000001100000000011100010011 ,
b01000001111100000000001110010100000000001100000000011100010011 0
b1 4
#93
b0 4
#94
b00011100111000011000011010100011 #
b1 '
b01000001111100000000001110010100011100111000011000011010100011 ,
b01000001111100000000001110010100011100111000011000011010100011 0
b1 4
#95
b0 4
#96
b010000011111000000000011100110 !
b0 '
b01000001111100000000001110011000011100111000011000011010100011 ,
b01000001111100000000001110011000011100111000011000011010100011 0
b1 4
#97
b0 4
#98
b00000000000100000000011100010011 #
b1 '
b01000001111100000000001110011000000000000100000000011100010011 ,
b01000001111100000000001110011000000000000100000000011100010011 0
b1 4
#99
b0 4
#100
b010000011111000000000011100111 !
b0 '
b01000001111100000000001110011100000000000100000000011100010011 ,
b01000001111100000000001110011100000000000100000000011100010011 0
b1 4
#101
b0 4
#102
b00011100111000011000011000100011 #
b1 '
b01000001111100000000001110011100011100111000011000011000100011 ,
b01000001111100000000001110011100011100111000011000011000100011 0
b1 4
#103
b0 4
#104
b010000011111000000000011101000 !
b0 '
b01000001111100000000001110100000011100111000011000011000100011 ,
b01000001111100000000001110100000011100111000011000011000100011 0
b1 4
#105
b0 4
#106
b00000000001001101010001000100011 #
b01000001111100000000001110100000000000001001101010001000100011 ,
b01000001111100000000001110100000000000001001101010001000100011 0
b1 4
#107
b0 4
#108
b1 4
#109
b0 4
#110
b1 4
#111
b0 4
#112
b1 4
#113
b0 4
#114
b1 4
#115
b0 4
#116
b1 4
#117
b0 4
#118
b1 4
#119
b0 4
#120
b1 4
#121
b0 4
#122
b1 4
#123
b0 4
#124
b1 4
#125
b0 4
#126
b1 4
#127
b0 4
#128
b1 4
#129
b0 4
#130
b1 4
#131
b0 4
#132
b00000000000100000000011110010011 #
b1 '
b01000001111100000000001110100000000000000100000000011110010011 ,
b01000001111100000000001110100000000000000100000000011110010011 0
b1 4
#133
b0 4
#134
b010000011111000000000011101001 !
b0 '
b01000001111100000000001110100100000000000100000000011110010011 ,
b01000001111100000000001110100100000000000100000000011110010011 0
b1 4
#135
b0 4
#136
b00000010110000000000000001101111 #
b1 '
b01000001111100000000001110100100000010110000000000000001101111 ,
b01000001111100000000001110100100000010110000000000000001101111 0
b1 4
#137
b0 4
#138
b010000011111000000000011101010 !
b0 '
b01000001111100000000001110101000000010110000000000000001101111 ,
b01000001111100000000001110101000000010110000000000000001101111 0
b1 4
#139
b0 4
#140
b00011100110100011000011110000011 #
b1 '
b01000001111100000000001110101000011100110100011000011110000011 ,
b01000001111100000000001110101000011100110100011000011110000011 0
b1 4
#141
b0 4
#142
b010000011111000000000011101011 !
b0 '
b01000001111100000000001110101100011100110100011000011110000011 ,
b01000001111100000000001110101100011100110100011000011110000011 0
b1 4
#143
b0 4
#144
b00001111111101111111011110010011 #
b1 '
b01000001111100000000001110101100001111111101111111011110010011 ,
b01000001111100000000001110101100001111111101111111011110010011 0
b1 4
#145
b0 4
#146
b010000011111000000000011101100 !
b0 '
b01000001111100000000001110110000001111111101111111011110010011 ,
b01000001111100000000001110110000001111111101111111011110010011 0
b1 4
#147
b0 4
#148
b00000001001101101010101000100011 #
b01000001111100000000001110110000000001001101101010101000100011 ,
b01000001111100000000001110110000000001001101101010101000100011 0
b1 4
#149
b0 4
#150
b1 4
#151
b0 4
#152
b1 4
#153
b0 4
#154
b1 4
#155
b0 4
#156
b1 4
#157
b0 4
#158
b1 4
#159
b0 4
#160
b1 4
#161
b0 4
#162
b1 4
#163
b0 4
#164
b1 4
#165
b0 4
#166
b1 4
#167
b0 4
#168
b1 4
#169
b0 4
#170
b1 4
#171
b0 4
#172
b1 4
#173
b0 4
#174
b11111111111101111000011110010011 #
b1 '
b01000001111100000000001110110011111111111101111000011110010011 ,
b01000001111100000000001110110011111111111101111000011110010011 0
b1 4
#175
b0 4
#176
b010000011111000000000011101101 !
b0 '
b01000001111100000000001110110111111111111101111000011110010011 ,
b01000001111100000000001110110111111111111101111000011110010011 0
b1 4
#177
b0 4
#178
b00001111111101111111011110010011 #
b1 '
b01000001111100000000001110110100001111111101111111011110010011 ,
b01000001111100000000001110110100001111111101111111011110010011 0
b1 4
#179
b0 4
#180
b010000011111000000000011101110 !
b0 '
b01000001111100000000001110111000001111111101111111011110010011 ,
b01000001111100000000001110111000001111111101111111011110010011 0
b1 4
#181
b0 4
#182
b00000001100001111001011100010011 #
b1 '
b01000001111100000000001110111000000001100001111001011100010011 ,
b01000001111100000000001110111000000001100001111001011100010011 0
b1 4
#183
b0 4
#184
b010000011111000000000011101111 !
b0 '
b111 )
b01000001111100000000001110111100000001100001111001011100010011 ,
b01000001111100000000001110111100000001100001111001011100010011 0
b1 4
#185
b0 4
#186
b01000001100001110101011100010011 #
b1 '
b01000001111100000000001110111101000001100001110101011100010011 ,
b01000001111100000000001110111101000001100001110101011100010011 0
b1 4
#187
b0 4
#188
b010000011111000000000011100000 !
b0 %
b0 &
b0 '
b010 )
b01000001111100000000001110000001000001100001110101011100010011 ,
b01000001111100000000001110000001000001100001110101011100010011 0
b1 4
#189
b0 4
#190
b00000000000001010000011110010011 #
b01000001111100000000001110000000000000000001010000011110010011 ,
b01000001111100000000001110000000000000000001010000011110010011 0
b1 4
#191
b0 4
#192
b1 4
#193
b0 4
#194
b1 4
#195
b0 4
#196
b1 4
#197
b0 4
#198
b1 4
#199
b0 4
#200
b1 4
#201
b0 4
#202
b1 4
#203
b0 4
#204
b1 4
#205
b0 4
#206
b1 4
#207
b0 4
#208
b1 4
#209
b0 4
#210
b1 4
#211
b0 4
#212
b010000011111000000000010110000 !
b1 %
b1 &
b01000001111100000000001011000000000000000001010000011110010011 ,
b01000001111100000000001011000000000000000001010000011110010011 0
b1 4
#213
b0 4
#214
b00000100000000010010100000000011 #
b01000001111100000000001011000000000100000000010010100000000011 ,
b01000001111100000000001011000000000100000000010010100000000011 0
b1 4
#215
b0 4
#216
b1 4
#217
b0 4
#218
b1 4
#219
b0 4
#220
b1 4
#221
b0 4
#222
b1 4
#223
b0 4
#224
b1 4
#225
b0 4
#226
b1 4
#227
b0 4
#228
b1 4
#229
b0 4
#230
b1 4
#231
b0 4
#232
b1 4
#233
b0 4
#234
b1 4
#235
b0 4
#236
b1 4
#237
b0 4
#238
b1 4
#239
b0 4
#240
b00000000000000000000011110010011 #
b1 '
b01000001111100000000001011000000000000000000000000011110010011 ,
b01000001111100000000001011000000000000000000000000011110010011 0
b1 4
#241
b0 4
#242
b010000011111000000000010110001 !
b0 '
b01000001111100000000001011000100000000000000000000011110010011 ,
b01000001111100000000001011000100000000000000000000011110010011 0
b1 4
#243
b0 4
#244
b00001111111101111111011110010011 #
b1 '
b01000001111100000000001011000100001111111101111111011110010011 ,
b01000001111100000000001011000100001111111101111111011110010011 0
b1 4
#245
b0 4
#246
b010000011111000000000010110010 !
b0 '
b01000001111100000000001011001000001111111101111111011110010011 ,
b01000001111100000000001011001000001111111101111111011110010011 0
b1 4
#247
b0 4
#248
b00000000000001111000010100010011 #
b1 '
b01000001111100000000001011001000000000000001111000010100010011 ,
b01000001111100000000001011001000000000000001111000010100010011 0
b1 4
#249
b0 4
#250
b010000011111000000000010110011 !
b0 '
b01000001111100000000001011001100000000000001111000010100010011 ,
b01000001111100000000001011001100000000000001111000010100010011 0
b1 4
#251
b0 4
#252
b00000000110000010010010000000011 #
b1 '
b01000001111100000000001011001100000000110000010010010000000011 ,
b01000001111100000000001011001100000000110000010010010000000011 0
b1 4
#253
b0 4
#254
b010000011111000000000010110100 !
b0 '
b01000001111100000000001011010000000000110000010010010000000011 ,
b01000001111100000000001011010000000000110000010010010000000011 0
b1 4
#255
b0 4
#256
b00000101000000010010101000000011 #
b01000001111100000000001011010000000101000000010010101000000011 ,
b01000001111100000000001011010000000101000000010010101000000011 0
b1 4
#257
b0 4
#258
b1 4
#259
b0 4
#260
b1 4
#261
b0 4
#262
b1 4
#263
b0 4
#264
b1 4
#265
b0 4
#266
b1 4
#267
b0 4
#268
b1 4
#269
b0 4
#270
b1 4
#271
b0 4
#272
b1 4
#273
b0 4
#274
b1 4
#275
b0 4
#276
b1 4
#277
b0 4
#278
b1 4
#279
b0 4
#280
b1 4
#281
b0 4
#282
b00000001000000010000000100010011 #
b1 '
b01000001111100000000001011010000000001000000010000000100010011 ,
b01000001111100000000001011010000000001000000010000000100010011 0
b1 4
#283
b0 4
#284
b010000011111000000000010110101 !
b0 '
b01000001111100000000001011010100000001000000010000000100010011 ,
b01000001111100000000001011010100000001000000010000000100010011 0
b1 4
#285
b0 4
#286
b00000000000000001000000001100111 #
b1 '
b01000001111100000000001011010100000000000000001000000001100111 ,
b01000001111100000000001011010100000000000000001000000001100111 0
b1 4
#287
b0 4
#288
b010000011111000000000010110110 !
b0 '
b01000001111100000000001011011000000000000000001000000001100111 ,
b01000001111100000000001011011000000000000000001000000001100111 0
b1 4
#289
b0 4
#290
b11111101000000010000000100010011 #
b1 '
b01000001111100000000001011011011111101000000010000000100010011 ,
b01000001111100000000001011011011111101000000010000000100010011 0
b1 4
#291
b0 4
#292
b010000011111000000000010110111 !
b0 '
b01000001111100000000001011011111111101000000010000000100010011 ,
b01000001111100000000001011011111111101000000010000000100010011 0
b1 4
#293
b0 4
#294
b00000010100000010010011000100011 #
b1 '
b01000001111100000000001011011100000010100000010010011000100011 ,
b01000001111100000000001011011100000010100000010010011000100011 0
b1 4
#295
b0 4
#296
b010000011111000000000010111000 !
b0 '
b01000001111100000000001011100000000010100000010010011000100011 ,
b01000001111100000000001011100000000010100000010010011000100011 0
b1 4
#297
b0 4
#298
b00000110000000010010110000000011 #
b01000001111100000000001011100000000110000000010010110000000011 ,
b01000001111100000000001011100000000110000000010010110000000011 0
b1 4
#299
b0 4
#300
b1 4
#301
b0 4
#302
b1 4
#303
b0 4
#304
b1 4
#305
b0 4
#306
b1 4
#307
b0 4
#308
b1 4
#309
b0 4
#310
b1 4
#311
b0 4
#312
b1 4
#313
b0 4
#314
b1 4
#315
b0 4
#316
b1 4
#317
b0 4
#318
b1 4
#319
b0 4
#320
b1 4
#321
b0 4
#322
b1 4
#323
b0 4
#324
b00000011000000010000010000010011 #
b1 '
b01000001111100000000001011100000000011000000010000010000010011 ,
b01000001111100000000001011100000000011000000010000010000010011 0
b1 4
#325
b0 4
#326
b010000011111000000000010111001 !
b0 '
b01000001111100000000001011100100000011000000010000010000010011 ,
b01000001111100000000001011100100000011000000010000010000010011 0
b1 4
#327
b0 4
#328
b11111100101001000010111000100011 #
b1 '
b01000001111100000000001011100111111100101001000010111000100011 ,
b01000001111100000000001011100111111100101001000010111000100011 0
b1 4
#329
b0 4
#330
b010000011111000000000010111010 !
b0 '
b01000001111100000000001011101011111100101001000010111000100011 ,
b01000001111100000000001011101011111100101001000010111000100011 0
b1 4
#331
b0 4
#332
b11111100101101000010110000100011 #
b1 '
b01000001111100000000001011101011111100101101000010110000100011 ,
b01000001111100000000001011101011111100101101000010110000100011 0
b1 4
#333
b0 4
#334
b010000011111000000000010111011 !
b0 '
b01000001111100000000001011101111111100101101000010110000100011 ,
b01000001111100000000001011101111111100101101000010110000100011 0
b1 4
#335
b0 4
#336
b00000000000001100000011110010011 #
b1 '
b01000001111100000000001011101100000000000001100000011110010011 ,
b01000001111100000000001011101100000000000001100000011110010011 0
b1 4
#337
b0 4
#338
b010000011111000000000010111100 !
b0 '
b01000001111100000000001011110000000000000001100000011110010011 ,
b01000001111100000000001011110000000000000001100000011110010011 0
b1 4
#339
b0 4
#340
b00000111000000010010111000000011 #
b01000001111100000000001011110000000111000000010010111000000011 ,
b01000001111100000000001011110000000111000000010010111000000011 0
b1 4
#341
b0 4
#342
b1 4
#343
b0 4
#344
b1 4
#345
b0 4
#346
b1 4
#347
b0 4
#348
b1 4
#349
b0 4
#350
b1 4
#351
b0 4
#352
b1 4
#353
b0 4
#354
b1 4
#355
b0 4
#356
b1 4
#357
b0 4
#358
b1 4
#359
b0 4
#360
b1 4
#361
b0 4
#362
b1 4
#363
b0 4
#364
b1 4
#365
b0 4
#366
b11111100111101000000101110100011 #
b1 '
b01000001111100000000001011110011111100111101000000101110100011 ,
b01000001111100000000001011110011111100111101000000101110100011 0
b1 4
#367
b0 4
#368
b010000011111000000000010111101 !
b0 '
b01000001111100000000001011110111111100111101000000101110100011 ,
b01000001111100000000001011110111111100111101000000101110100011 0
b1 4
#369
b0 4
#370
b11111110000001000010011000100011 #
b1 '
b01000001111100000000001011110111111110000001000010011000100011 ,
b01000001111100000000001011110111111110000001000010011000100011 0
b1 4
#371
b0 4
#372
b010000011111000000000010111110 !
b0 '
b01000001111100000000001011111011111110000001000010011000100011 ,
b01000001111100000000001011111011111110000001000010011000100011 0
b1 4
#373
b0 4
#374
b00000011110000000000000001101111 #
b1 '
b01000001111100000000001011111000000011110000000000000001101111 ,
b01000001111100000000001011111000000011110000000000000001101111 0
b1 4
#375
b0 4
#376
b010000011111000000000010111111 !
b0 '
b111 )
b01000001111100000000001011111100000011110000000000000001101111 ,
b01000001111100000000001011111100000011110000000000000001101111 0
b1 4
#377
b0 4
#378
b11111110110001000010011110000011 #
b1 '
b01000001111100000000001011111111111110110001000010011110000011 ,
b01000001111100000000001011111111111110110001000010011110000011 0
b1 4
#379
b0 4
#380
b010000011111000000000010110000 !
b0 %
b0 &
b0 '
b010 )
b01000001111100000000001011000011111110110001000010011110000011 ,
b01000001111100000000001011000011111110110001000010011110000011 0
b1 4
#381
b0 4
#382
b00000000000000000000011110010011 #
b01000001111100000000001011000000000000000000000000011110010011 ,
b01000001111100000000001011000000000000000000000000011110010011 0
b1 4
#383
b0 4
#384
b1 4
#385
b0 4
#386
b1 4
#387
b0 4
#388
b1 4
#389
b0 4
#390
b1 4
#391
b0 4
#392
b1 4
#393
b0 4
#394
b1 4
#395
b0 4
#396
b1 4
#397
b0 4
#398
b1 4
#399
b0 4
#400
b1 4
#401
b0 4
#402
b1 4
#403
b0 4
#404
b1 4
#405
b0 4
#406
b1 4
#407
b0 4
#408
b1 4
#409
b0 4
#410
b1 4
#411
b0 4
#412
b1 4
#413
b0 4
#414
b010000010111110101111101101111 !
b10011101010001101101110111010000 "
b1 %
b1 &
b1 (
b000 )
b01000001011111010111110110111100000000000000000000011110010011 ,
b01000001011111010111110110111100000000000000000000011110010011 0
b1 4
#415
b0 4
#416
b01101001001110101000011111001100 #
b1 '
b01000001011111010111110110111101101001001110101000011111001100 ,
b01000001011111010111110110111101101001001110101000011111001100 0
b1 4
#417
b0 4
#418
b10011101010001101101110111010000 #
b0 %
b0 &
b0 '
b01000001011111010111110110111110011101010001101101110111010000 ,
b01000001011111010111110110111110011101010001101101110111010000 0
b1 4
#419
b0 4
#420
b010000010111110101111101100111 !
b00000000000000100111101010010000 "
b1 %
b1 &
b01000001011111010111110110011110011101010001101101110111010000 ,
b01000001011111010111110110011110011101010001101101110111010000 0
b1 4
#421
b0 4
#422
b00000000000000010000011101010100 #
b1 '
b01000001011111010111110110011100000000000000010000011101010100 ,
b01000001011111010111110110011100000000000000010000011101010100 0
b1 4
#423
b0 4
#424
b00000000000000100111101010010000 #
b0 %
b0 &
b0 '
b01000001011111010111110110011100000000000000100111101010010000 ,
b01000001011111010111110110011100000000000000100111101010010000 0
b1 4
#425
b0 4
#426
b010000010111110101111101100110 !
b00000000000000100111101010010100 "
b1 %
b1 &
b01000001011111010111110110011000000000000000100111101010010000 ,
b01000001011111010111110110011000000000000000100111101010010000 0
b1 4
#427
b0 4
#428
b00000000000000100111001110101100 #
b1 '
b01000001011111010111110110011000000000000000100111001110101100 ,
b01000001011111010111110110011000000000000000100111001110101100 0
b1 4
#429
b0 4
#430
b00000000000000100111101010010100 #
b0 %
b0 &
b0 '
b01000001011111010111110110011000000000000000100111101010010100 ,
b01000001011111010111110110011000000000000000100111101010010100 0
b1 4
#431
b0 4
#432
b010000010111110101111101100101 !
b00000100000001000000010000000100 "
b1000 $
b1 %
b1 &
b01000001011111010111110110010100000000000000100111101010010100 ,
b01000001011111010111110110010100000000000000100111101010010100 0
b1 4
#433
b0 4
#434
b00000000000000100111000011000000 #
b1 '
b01000001011111010111110110010100000000000000100111000011000000 ,
b01000001011111010111110110010100000000000000100111000011000000 0
b1 4
#435
b0 4
#436
b00000100000000100111000011000000 #
b0 %
b0 &
b0 '
b01000001011111010111110110010100000100000000100111000011000000 ,
b01000001011111010111110110010100000100000000100111000011000000 0
b1 4
#437
b0 4
#438
b010000010111110101111101101011 !
b00000000000000000000000000000000 "
b1111 $
b1 %
b1 &
b01000001011111010111110110101100000100000000100111000011000000 ,
b01000001011111010111110110101100000100000000100111000011000000 0
b1 4
#439
b0 4
#440
b00000000000000010000010011000100 #
b1 '
b01000001011111010111110110101100000000000000010000010011000100 ,
b01000001011111010111110110101100000000000000010000010011000100 0
b1 4
#441
b0 4
#442
b00000000000000000000000000000000 #
b0 %
b0 &
b0 '
b01000001011111010111110110101100000000000000000000000000000000 ,
b01000001011111010111110110101100000000000000000000000000000000 0
b1 4
#443
b0 4
#444
b010000011111000000000011000000 !
b1 %
b1 &
b0 (
b010 )
b01000001111100000000001100000000000000000000000000000000000000 ,
b01000001111100000000001100000000000000000000000000000000000000 0
b1 4
#445
b0 4
#446
b00000000100000010010000100000011 #
b01000001111100000000001100000000000000100000010010000100000011 ,
b01000001111100000000001100000000000000100000010010000100000011 0
b1 4
#447
b0 4
#448
b1 4
#449
b0 4
#450
b1 4
#451
b0 4
#452
b1 4
#453
b0 4
#454
b1 4
#455
b0 4
#456
b1 4
#457
b0 4
#458
b1 4
#459
b0 4
#460
b1 4
#461
b0 4
#462
b1 4
#463
b0 4
#464
b1 4
#465
b0 4
#466
b1 4
#467
b0 4
#468
b1 4
#469
b0 4
#470
b1 4
#471
b0 4
#472
b11111101110001000010011100000011 #
b1 '
b01000001111100000000001100000011111101110001000010011100000011 ,
b01000001111100000000001100000011111101110001000010011100000011 0
b1 4
#473
b0 4
#474
b010000011111000000000011000001 !
b0 '
b01000001111100000000001100000111111101110001000010011100000011 ,
b01000001111100000000001100000111111101110001000010011100000011 0
b1 4
#475
b0 4
#476
b00000000111101110000011110110011 #
b1 '
b01000001111100000000001100000100000000111101110000011110110011 ,
b01000001111100000000001100000100000000111101110000011110110011 0
b1 4
#477
b0 4
#478
b010000011111000000000011000010 !
b0 '
b01000001111100000000001100001000000000111101110000011110110011 ,
b01000001111100000000001100001000000000111101110000011110110011 0
b1 4
#479
b0 4
#480
b00000000000001111100011100000011 #
b1 '
b01000001111100000000001100001000000000000001111100011100000011 ,
b01000001111100000000001100001000000000000001111100011100000011 0
b1 4
#481
b0 4
#482
b010000011111000000000011000011 !
b0 '
b01000001111100000000001100001100000000000001111100011100000011 ,
b01000001111100000000001100001100000000000001111100011100000011 0
b1 4
#483
b0 4
#484
b11111110110001000010011110000011 #
b1 '
b01000001111100000000001100001111111110110001000010011110000011 ,
b01000001111100000000001100001111111110110001000010011110000011 0
b1 4
#485
b0 4
#486
b010000011111000000000011000100 !
b0 '
b01000001111100000000001100010011111110110001000010011110000011 ,
b01000001111100000000001100010011111110110001000010011110000011 0
b1 4
#487
b0 4
#488
b00000000100001000111010010010011 #
b01000001111100000000001100010000000000100001000111010010010011 ,
b01000001111100000000001100010000000000100001000111010010010011 0
b1 4
#489
b0 4
#490
b1 4
#491
b0 4
#492
b1 4
#493
b0 4
#494
b1 4
#495
b0 4
#496
b1 4
#497
b0 4
#498
b1 4
#499
b0 4
#500
b1 4
#501
b0 4
#502
b1 4
#503
b0 4
#504
b1 4
#505
b0 4
